Resume Experiment
…
Call:  stats::glm(formula = call ~ gender + city + ethnicity + special + 
    quality, family = stats::binomial, data = data)

Coefficients:
  (Intercept)     gendermale    citychicago  ethnicitycauc     specialyes  
      -2.6645        -0.1321        -0.4676         0.4477         0.8089  
   qualitylow  
      -0.1563  

Degrees of Freedom: 4869 Total (i.e. Null);  4864 Residual
Null Deviance:      2727 
Residual Deviance: 2633     AIC: 2645

# A tibble: 6 × 7
  term          estimate std.error statistic  p.value conf.low conf.high
  <chr>            <dbl>     <dbl>     <dbl>    <dbl>    <dbl>     <dbl>
1 (Intercept)     -2.66      0.129   -20.6   1.44e-94   -2.92    -2.42  
2 gendermale      -0.132     0.133    -0.993 3.21e- 1   -0.398    0.124 
3 citychicago     -0.468     0.108    -4.32  1.58e- 5   -0.680   -0.256 
4 ethnicitycauc    0.448     0.108     4.14  3.54e- 5    0.237    0.661 
5 specialyes       0.809     0.108     7.49  7.13e-14    0.597    1.02  
6 qualitylow      -0.156     0.107    -1.46  1.44e- 1   -0.367    0.0531

This is my data generating mechanism.

\[
\begin{equation}
\begin{aligned}
\text{logit}(\Pr(\text{call} = 1)) =
& -2.66
- 0.13 \cdot \text{gendermale}
- 0.47 \cdot \text{citychicago} \\
& + 0.45 \cdot \text{ethnicitycauc}
+ 0.81 \cdot \text{specialyes}
- 0.16 \cdot \text{qualitylow}
\end{aligned}
\end{equation}
\]

Temperance

What are the questions you want to answer?

How can you use the marginaleffects package to answer them?

 Group Estimate Std. Error      z Pr(>|z|)    S  2.5 % 97.5 %
   no    0.9448    0.00633 149.38   <0.001  Inf 0.9324 0.9572
   no    0.9361    0.00714 131.17   <0.001  Inf 0.9221 0.9501
   no    0.9640    0.00454 212.15   <0.001  Inf 0.9551 0.9729
   no    0.9108    0.00990  91.96   <0.001  Inf 0.8914 0.9302
   no    0.9361    0.00714 131.17   <0.001  Inf 0.9221 0.9501
--- 9730 rows omitted. See ?print.marginaleffects ---
…
